SimpleCache/Completed/output.vcd
$date
	Thu Feb 18 22:17:30 2021
$end
$version
	Icarus Verilog
$end
$timescale
	1s
$end
$scope module testbench $end
$var wire 32 ! out [31:0] $end
$var reg 32 " address [31:0] $end
$var reg 1 # clk $end
$var reg 32 $ data [31:0] $end
$var reg 1 % mode $end
$scope module tb $end
$var wire 32 & address [31:0] $end
$var wire 1 # clk $end
$var wire 32 ' data [31:0] $end
$var wire 1 % mode $end
$var wire 32 ( out [31:0] $end
$var reg 6 ) index [5:0] $end
$var reg 32 * prev_address [31:0] $end
$var reg 32 + prev_data [31:0] $end
$var reg 1 , prev_mode $end
$var reg 6 - tag [5:0] $end
$var reg 32 . temp_out [31:0] $end
$scope module cache $end
$scope begin initialization $end
$var integer 32 / i [31:0] $end
$upscope $end
$upscope $end
$scope module ram $end
$upscope $end
$upscope $end
$upscope $end
$enddefinitions $end
#0
$dumpvars
b1000000 /
bx .
b0 -
1,
b11100011000000 +
b0 *
b0 )
bx (
b11100011000000 '
b0 &
1%
b11100011000000 $
1#
b0 "
bx !
$end
#25
0#
#50
1#
#75
0#
#100
1#
#125
0#
#150
1#
#175
0#
#200
b11100 )
b101111 -
b10000000100001010101 +
b101111011100 *
1#
b10000000100001010101 $
b10000000100001010101 '
b10100111111001011111101111011100 "
b10100111111001011111101111011100 &
#225
0#
#250
1#
#275
0#
#300
1#
#325
0#
#350
1#
#375
0#
#400
b10001 )
b11111 -
b1100000110001101100010110 +
b11111010001 *
1#
b1100000110001101100010110 $
b1100000110001101100010110 '
b11110100011111010001 "
b11110100011111010001 &
#425
0#
#450
1#
#475
0#
#500
1#
#525
0#
#550
1#
#575
0#
#600
b11100 )
b101111 -
b11100011000000 +
b101111011100 *
1#
b11100011000000 $
b11100011000000 '
b10100111111001011111101111011100 "
b10100111111001011111101111011100 &
#625
0#
#650
1#
#675
0#
#700
1#
#725
0#
#750
1#
#775
0#
#800
b10001 )
b11111 -
b11111010001 *
1#
b11110100011111010001 "
b11110100011111010001 &
#825
0#
#850
1#
#875
0#
#900
1#
#925
0#
#950
1#
#975
0#
#1000
b11100011000000 !
b11100011000000 (
b11100011000000 .
0,
b0 +
1#
0%
b0 $
b0 '
#1025
0#
#1050
1#
#1075
0#
#1100
1#
#1125
0#
#1150
1#
#1175
0#
#1200
b11100 )
b101111 -
b101111011100 *
1#
b10100111111001011111101111011100 "
b10100111111001011111101111011100 &
#1225
0#
#1250
1#
#1275
0#
#1300
1#
#1325
0#
#1350
1#
#1375
0#
#1400
b0 )
b0 -
b11100011000000 +
b0 *
1#
b11100011000000 $
b11100011000000 '
b0 "
b0 &
