matbi/01_VerilogHDL/chapter_14_power_of_8/output.vcd
$date
	Thu Feb 25 22:02:40 2021
$end
$version
	Icarus Verilog
$end
$timescale
	1ps
$end
$scope module tb_power_of_8 $end
$var wire 1 ! o_valid $end
$var wire 64 " o_power_of_8 [63:0] $end
$var reg 1 # clk $end
$var reg 1 $ i_valid $end
$var reg 32 % i_value [31:0] $end
$var reg 1 & reset_n $end
$var integer 32 ' fd [31:0] $end
$var integer 32 ( i [31:0] $end
$scope module u_power_of_8 $end
$var wire 1 # clk $end
$var wire 1 $ i_valid $end
$var wire 32 ) i_value [31:0] $end
$var wire 64 * o_power_of_8 [63:0] $end
$var wire 1 & reset_n $end
$var wire 64 + power_of_8 [63:0] $end
$var wire 64 , power_of_4 [63:0] $end
$var wire 64 - power_of_2 [63:0] $end
$var wire 1 ! o_valid $end
$var reg 64 . r_power_of_2 [63:0] $end
$var reg 64 / r_power_of_4 [63:0] $end
$var reg 64 0 r_power_of_8 [63:0] $end
$var reg 3 1 r_valid [2:0] $end
$upscope $end
$upscope $end
$enddefinitions $end
#0
$dumpvars
bx 1
bx 0
bx /
bx .
b0 -
bx ,
bx +
bx *
b0 )
bx (
b10000000000000000000000000000011 '
1&
b0 %
0$
0#
bx "
x!
$end
#5000
bx0 1
b0 ,
b0 .
1#
#10000
0#
#15000
b0 +
b0 /
bx00 1
1#
#20000
0#
#25000
0!
b0 1
b0 "
b0 *
b0 0
1#
#30000
0#
#35000
1#
#40000
0#
#45000
1#
#50000
0#
#55000
1#
#60000
0#
#65000
1#
#70000
0#
#75000
1#
#80000
0#
#85000
1#
#90000
0#
#95000
1#
#100000
0#
0&
#105000
1#
#110000
0#
1&
#115000
1#
#120000
0#
#125000
b0 (
1#
#130000
1$
0#
#135000
b1 1
b1 (
1#
#140000
b1 -
b1 %
b1 )
0#
#145000
b1 ,
b1 .
b11 1
b10 (
1#
#150000
b100 -
b10 %
b10 )
0#
#155000
1!
b111 1
b1 +
b1 /
b10000 ,
b100 .
b11 (
1#
#160000
b1001 -
b11 %
b11 )
0#
#165000
b1 "
b1 *
b1 0
b100000000 +
b10000 /
b1010001 ,
b1001 .
b100 (
1#
#170000
b10000 -
b100 %
b100 )
0#
#175000
b100000000 "
b100000000 *
b100000000 0
b1100110100001 +
b1010001 /
b100000000 ,
b10000 .
b101 (
1#
#180000
b11001 -
b101 %
b101 )
0#
#185000
b1100110100001 "
b1100110100001 *
b1100110100001 0
b10000000000000000 +
b100000000 /
b1001110001 ,
b11001 .
b110 (
1#
#190000
b100100 -
b110 %
b110 )
0#
#195000
b10000000000000000 "
b10000000000000000 *
b10000000000000000 0
b1011111010111100001 +
b1001110001 /
b10100010000 ,
b100100 .
b111 (
1#
#200000
b110001 -
b111 %
b111 )
0#
#205000
b1011111010111100001 "
b1011111010111100001 *
b1011111010111100001 0
b110011010000100000000 +
b10100010000 /
b100101100001 ,
b110001 .
b1000 (
1#
#210000
b1000000 -
b1000 %
b1000 )
0#
#215000
b110011010000100000000 "
b110011010000100000000 *
b110011010000100000000 0
b10101111111011011000001 +
b100101100001 /
b1000000000000 ,
b1000000 .
b1001 (
1#
#220000
b1010001 -
b1001 %
b1001 )
0#
#225000
b10101111111011011000001 "
b10101111111011011000001 *
b10101111111011011000001 0
b1000000000000000000000000 +
b1000000000000 /
b1100110100001 ,
b1010001 .
b1010 (
1#
#230000
b1100100 -
b1010 %
b1010 )
0#
#235000
b1000000000000000000000000 "
b1000000000000000000000000 *
b1000000000000000000000000 0
b10100100001101011101000001 +
b1100110100001 /
b10011100010000 ,
b1100100 .
b1011 (
1#
#240000
b1111001 -
b1011 %
b1011 )
0#
#245000
b10100100001101011101000001 "
b10100100001101011101000001 *
b10100100001101011101000001 0
b101111101011110000100000000 +
b10011100010000 /
b11100100110001 ,
b1111001 .
b1100 (
1#
#250000
b10010000 -
b1100 %
b1100 )
0#
#255000
b101111101011110000100000000 "
b101111101011110000100000000 *
b101111101011110000100000000 0
b1100110001101101101101100001 +
b11100100110001 /
b101000100000000 ,
b10010000 .
b1101 (
1#
#260000
b10101001 -
b1101 %
b1101 )
0#
#265000
b1100110001101101101101100001 "
b1100110001101101101101100001 *
b1100110001101101101101100001 0
b11001101000010000000000000000 +
b101000100000000 /
b110111110010001 ,
b10101001 .
b1110 (
1#
#270000
b11000100 -
b1110 %
b1110 )
0#
#275000
b11001101000010000000000000000 "
b11001101000010000000000000000 *
b11001101000010000000000000000 0
b110000100111110001000000100001 +
b110111110010001 /
b1001011000010000 ,
b11000100 .
b1111 (
1#
#280000
b11100001 -
b1111 %
b1111 )
0#
#285000
b110000100111110001000000100001 "
b110000100111110001000000100001 *
b110000100111110001000000100001 0
b1010111111101101100000100000000 +
b1001011000010000 /
b1100010111000001 ,
b11100001 .
b10000 (
1#
#290000
b100000000 -
b10000 %
b10000 )
0#
#295000
b1010111111101101100000100000000 "
b1010111111101101100000100000000 *
b1010111111101101100000100000000 0
b10011000110000101001101110000001 +
b1100010111000001 /
b10000000000000000 ,
b100000000 .
b10001 (
1#
#300000
b100100001 -
b10001 %
b10001 )
0#
#305000
b10011000110000101001101110000001 "
b10011000110000101001101110000001 *
b10011000110000101001101110000001 0
b100000000000000000000000000000000 +
b10000000000000000 /
b10100011001000001 ,
b100100001 .
b10010 (
1#
#310000
b101000100 -
b10010 %
b10010 )
0#
#315000
b100000000000000000000000000000000 "
b100000000000000000000000000000000 *
b100000000000000000000000000000000 0
b110011111110010011001110010000001 +
b10100011001000001 /
b11001101000010000 ,
b101000100 .
b10011 (
1#
#320000
b101101001 -
b10011 %
b10011 )
0#
#325000
b110011111110010011001110010000001 "
b110011111110010011001110010000001 *
b110011111110010011001110010000001 0
b1010010000110101110100000100000000 +
b11001101000010000 /
b11111110100010001 ,
b101101001 .
b10100 (
1#
#330000
b110010000 -
b10100 %
b10100 )
0#
#335000
b1010010000110101110100000100000000 "
b1010010000110101110100000100000000 *
b1010010000110101110100000100000000 0
b1111110100010011001001101100100001 +
b11111110100010001 /
b100111000100000000 ,
b110010000 .
b10101 (
1#
#340000
b110111001 -
b10101 %
b10101 )
0#
#345000
b1111110100010011001001101100100001 "
b1111110100010011001001101100100001 *
b1111110100010011001001101100100001 0
b10111110101111000010000000000000000 +
b100111000100000000 /
b101111011110110001 ,
b110111001 .
b10110 (
1#
#350000
b111100100 -
b10110 %
b10110 )
0#
#355000
b10111110101111000010000000000000000 "
b10111110101111000010000000000000000 *
b10111110101111000010000000000000000 0
b100011001110011010110000100001100001 +
b101111011110110001 /
b111001001100010000 ,
b111100100 .
b10111 (
1#
#360000
b1000010001 -
b10111 %
b10111 )
0#
#365000
b100011001110011010110000100001100001 "
b100011001110011010110000100001100001 *
b100011001110011010110000100001100001 0
b110011000110110110110110000100000000 +
b111001001100010000 /
b1000100010100100001 ,
b1000010001 .
b11000 (
1#
#370000
b1001000000 -
b11000 %
b11000 )
0#
#375000
b110011000110110110110110000100000000 "
b110011000110110110110110000100000000 *
b110011000110110110110110000100000000 0
b1001000111011101100101100111001000001 +
b1000100010100100001 /
b1010001000000000000 ,
b1001000000 .
b11001 (
1#
#380000
b1001110001 -
b11001 %
b11001 )
0#
#385000
b1001000111011101100101100111001000001 "
b1001000111011101100101100111001000001 *
b1001000111011101100101100111001000001 0
b1100110100001000000000000000000000000 +
b1010001000000000000 /
b1011111010111100001 ,
b1001110001 .
b11010 (
1#
#390000
b1010100100 -
b11010 %
b11010 )
0#
#395000
b1100110100001000000000000000000000000 "
b1100110100001000000000000000000000000 *
b1100110100001000000000000000000000000 0
b10001110000110111100100110111111000001 +
b1011111010111100001 /
b1101111100100010000 ,
b1010100100 .
b11011 (
1#
#400000
b1011011001 -
b11011 %
b11011 )
0#
#405000
b10001110000110111100100110111111000001 "
b10001110000110111100100110111111000001 *
b10001110000110111100100110111111000001 0
b11000010011111000100000010000100000000 +
b1101111100100010000 /
b10000001101111110001 ,
b1011011001 .
b11100 (
1#
#410000
b1100010000 -
b11100 %
b11100 )
0#
#415000
b11000010011111000100000010000100000000 "
b11000010011111000100000010000100000000 *
b11000010011111000100000010000100000000 0
b100000111000010000111001011100011100001 +
b10000001101111110001 /
b10010110000100000000 ,
b1100010000 .
b11101 (
1#
#420000
b1101001001 -
b11101 %
b11101 )
0#
#425000
b100000111000010000111001011100011100001 "
b100000111000010000111001011100011100001 *
b100000111000010000111001011100011100001 0
b101011111110110110000010000000000000000 +
b10010110000100000000 /
b10101100101011010001 ,
b1101001001 .
b11110 (
1#
#430000
b1110000100 -
b11110 %
b11110 )
0#
#435000
b101011111110110110000010000000000000000 "
b101011111110110110000010000000000000000 *
b101011111110110110000010000000000000000 0
b111010001111001000000100111111010100001 +
b10101100101011010001 /
b11000101110000010000 ,
b1110000100 .
b11111 (
1#
#440000
b1111000001 -
b11111 %
b11111 )
0#
#445000
b111010001111001000000100111111010100001 "
b111010001111001000000100111111010100001 *
b111010001111001000000100111111010100001 0
b1001100011000010100110111000000100000000 +
b11000101110000010000 /
b11100001011110000001 ,
b1111000001 .
b100000 (
1#
#450000
b10000000000 -
b100000 %
b100000 )
0#
#455000
b1001100011000010100110111000000100000000 "
b1001100011000010100110111000000100000000 *
b1001100011000010100110111000000100000000 0
b1100011010010100010001000110111100000001 +
b11100001011110000001 /
b100000000000000000000 ,
b10000000000 .
b100001 (
1#
#460000
b10001000001 -
b100001 %
b100001 )
0#
#465000
b1100011010010100010001000110111100000001 "
b1100011010010100010001000110111100000001 *
b1100011010010100010001000110111100000001 0
b10000000000000000000000000000000000000000 +
b100000000000000000000 /
b100100001100010000001 ,
b10001000001 .
b100010 (
1#
#470000
b10010000100 -
b100010 %
b100010 )
0#
#475000
b10000000000000000000000000000000000000000 "
b10000000000000000000000000000000000000000 *
b10000000000000000000000000000000000000000 0
b10100011101110100011111000111000100000001 +
b100100001100010000001 /
b101000110010000010000 ,
b10010000100 .
b100011 (
1#
#480000
b10011001001 -
b100011 %
b100011 )
0#
#485000
b10100011101110100011111000111000100000001 "
b10100011101110100011111000111000100000001 *
b10100011101110100011111000111000100000001 0
b11001111111001001100111001000000100000000 +
b101000110010000010000 /
b101101110010111010001 ,
b10011001001 .
b100100 (
1#
#490000
b10100010000 -
b100100 %
b100100 )
0#
#495000
b11001111111001001100111001000000100000000 "
b11001111111001001100111001000000100000000 *
b11001111111001001100111001000000100000000 0
b100000110001001110001110111001010010100001 +
b101101110010111010001 /
b110011010000100000000 ,
b10100010000 .
b100101 (
1#
#500000
b10101011001 -
b100101 %
b100101 )
0#
#505000
b100000110001001110001110111001010010100001 "
b100000110001001110001110111001010010100001 *
b100000110001001110001110111001010010100001 0
b101001000011010111010000010000000000000000 +
b110011010000100000000 /
b111001001100011110001 ,
b10101011001 .
b100110 (
1#
#510000
b10110100100 -
b100110 %
b100110 )
0#
#515000
b101001000011010111010000010000000000000000 "
b101001000011010111010000010000000000000000 *
b101001000011010111010000010000000000000000 0
b110011000111010000000101110001001011100001 +
b111001001100011110001 /
b111111101000100010000 ,
b10110100100 .
b100111 (
1#
#520000
b10111110001 -
b100111 %
b100111 )
0#
#525000
b110011000111010000000101110001001011100001 "
b110011000111010000000101110001001011100001 *
b110011000111010000000101110001001011100001 0
b111111010001001100100110110010000100000000 +
b111111101000100010000 /
b1000110100110011100001 ,
b10111110001 .
b101000 (
1#
#530000
b11001000000 -
b101000 %
b101000 )
0#
#535000
b111111010001001100100110110010000100000000 "
b111111010001001100100110110010000100000000 *
b111111010001001100100110110010000100000000 0
b1001101111000011100100111000101110111000001 +
b1000110100110011100001 /
b1001110001000000000000 ,
b11001000000 .
b101001 (
1#
#540000
b11010010001 -
b101001 %
b101001 )
0#
#545000
b1001101111000011100100111000101110111000001 "
b1001101111000011100100111000101110111000001 *
b1001101111000011100100111000101110111000001 0
b1011111010111100001000000000000000000000000 +
b1001110001000000000000 /
b1010110001111000100001 ,
b11010010001 .
b101010 (
1#
#550000
b11011100100 -
b101010 %
b101010 )
0#
#555000
b1011111010111100001000000000000000000000000 "
b1011111010111100001000000000000000000000000 *
b1011111010111100001000000000000000000000000 0
b1110100001100100010101000011100000001000001 +
b1010110001111000100001 /
b1011110111101100010000 ,
b11011100100 .
b101011 (
1#
#560000
b11100111001 -
b101011 %
b101011 )
0#
#565000
b1110100001100100010101000011100000001000001 "
b1110100001100100010101000011100000001000001 *
b1110100001100100010101000011100000001000001 0
b10001100111001101011000010000110000100000000 +
b1011110111101100010000 /
b1101000010101010110001 ,
b11100111001 .
b101100 (
1#
#570000
b11110010000 -
b101100 %
b101100 )
0#
#575000
b10001100111001101011000010000110000100000000 "
b10001100111001101011000010000110000100000000 *
b10001100111001101011000010000110000100000000 0
b10101010000101011111000001101000111001100001 +
b1101000010101010110001 /
b1110010011000100000000 ,
b11110010000 .
b101101 (
1#
#580000
b11111101001 -
b101101 %
b101101 )
0#
#585000
b10101010000101011111000001101000111001100001 "
b10101010000101011111000001101000111001100001 *
b10101010000101011111000001101000111001100001 0
b11001100011011011011011000010000000000000000 +
b1110010011000100000000 /
b1111101001001000010001 ,
b11111101001 .
b101110 (
1#
#590000
b100001000100 -
b101110 %
b101110 )
0#
#595000
b11001100011011011011011000010000000000000000 "
b11001100011011011011011000010000000000000000 *
b11001100011011011011011000010000000000000000 0
b11110100101100010011100100110110010100100001 +
b1111101001001000010001 /
b10001000101001000010000 ,
b100001000100 .
b101111 (
1#
#600000
b100010100001 -
b101111 %
b101111 )
0#
#605000
b11110100101100010011100100110110010100100001 "
b11110100101100010011100100110110010100100001 *
b11110100101100010011100100110110010100100001 0
b100100011101110110010110011100100000100000000 +
b10001000101001000010000 /
b10010100111010101000001 ,
b100010100001 .
b110000 (
1#
#610000
b100100000000 -
b110000 %
b110000 )
0#
#615000
b100100011101110110010110011100100000100000000 "
b100100011101110110010110011100100000100000000 *
b100100011101110110010110011100100000100000000 0
b101011010011111111111010010000111101010000001 +
b10010100111010101000001 /
b10100010000000000000000 ,
b100100000000 .
b110001 (
1#
#620000
b100101100001 -
b110001 %
b110001 )
0#
#625000
b101011010011111111111010010000111101010000001 "
b101011010011111111111010010000111101010000001 *
b101011010011111111111010010000111101010000001 0
b110011010000100000000000000000000000000000000 +
b10100010000000000000000 /
b10101111111011011000001 ,
b100101100001 .
b110010 (
1#
#630000
b100111000100 -
b110010 %
b110010 )
0#
#635000
b110011010000100000000000000000000000000000000 "
b110011010000100000000000000000000000000000000 *
b110011010000100000000000000000000000000000000 0
b111100011100110100101000001010111110110000001 +
b10101111111011011000001 /
b10111110101111000010000 ,
b100111000100 .
b110011 (
1#
#640000
b101000101001 -
b110011 %
b110011 )
0#
#645000
b111100011100110100101000001010111110110000001 "
b111100011100110100101000001010111110110000001 *
b111100011100110100101000001010111110110000001 0
b1000111000011011110010011011111100000100000000 +
b10111110101111000010000 /
b11001110011101010010001 ,
b101000101001 .
b110100 (
1#
#650000
b101010010000 -
b110100 %
b110100 )
0#
#655000
b1000111000011011110010011011111100000100000000 "
b1000111000011011110010011011111100000100000000 *
b1000111000011011110010011011111100000100000000 0
b1010011010000000101110000101000000011000100001 +
b11001110011101010010001 /
b11011111001000100000000 ,
b101010010000 .
b110101 (
1#
#660000
b101011111001 -
b110101 %
b110101 )
0#
#665000
b1010011010000000101110000101000000011000100001 "
b1010011010000000101110000101000000011000100001 *
b1010011010000000101110000101000000011000100001 0
b1100001001111100010000001000010000000000000000 +
b11011111001000100000000 /
b11110000110011000110001 ,
b101011111001 .
b110110 (
1#
#670000
b101101100100 -
b110110 %
b110110 )
0#
#675000
b1100001001111100010000001000010000000000000000 "
b1100001001111100010000001000010000000000000000 *
b1100001001111100010000001000010000000000000000 0
b1110001001111111110110101110110001010101100001 +
b11110000110011000110001 /
b100000011011111100010000 ,
b101101100100 .
b110111 (
1#
#680000
b101111010001 -
b110111 %
b110111 )
0#
#685000
b1110001001111111110110101110110001010101100001 "
b1110001001111111110110101110110001010101100001 *
b1110001001111111110110101110110001010101100001 0
b10000011100001000011100101110001110000100000000 +
b100000011011111100010000 /
b100010111010000010100001 ,
b101111010001 .
b111000 (
1#
#690000
b110001000000 -
b111000 %
b111000 )
0#
#695000
b10000011100001000011100101110001110000100000000 "
b10000011100001000011100101110001110000100000000 *
b10000011100001000011100101110001110000100000000 0
b10011000010011111010011100111111010010101000001 +
b100010111010000010100001 /
b100101100001000000000000 ,
b110001000000 .
b111001 (
1#
#700000
b110010110001 -
b111001 %
b111001 )
0#
#705000
b10011000010011111010011100111111010010101000001 "
b10011000010011111010011100111111010010101000001 *
b10011000010011111010011100111111010010101000001 0
b10101111111011011000001000000000000000000000000 +
b100101100001000000000000 /
b101000010001001001100001 ,
b110010110001 .
b111010 (
1#
#710000
b110100100100 -
b111010 %
b111010 )
0#
#715000
b10101111111011011000001000000000000000000000000 "
b10101111111011011000001000000000000000000000000 *
b10101111111011011000001000000000000000000000000 0
b11001010101100000011111010100111100100011000001 +
b101000010001001001100001 /
b101011001010110100010000 ,
b110100100100 .
b111011 (
1#
#720000
b110110011001 -
b111011 %
b111011 )
0#
#725000
b11001010101100000011111010100111100100011000001 "
b11001010101100000011111010100111100100011000001 *
b11001010101100000011111010100111100100011000001 0
b11101000111100100000010011111101010000100000000 +
b101011001010110100010000 /
b101110001110010101110001 ,
b110110011001 .
b111100 (
1#
#730000
b111000010000 -
b111100 %
b111100 )
0#
#735000
b11101000111100100000010011111101010000100000000 "
b11101000111100100000010011111101010000100000000 *
b11101000111100100000010011111101010000100000000 0
b100001011000101010100000000100110101101111100001 +
b101110001110010101110001 /
b110001011100000100000000 ,
b111000010000 .
b111101 (
1#
#740000
b111010001001 -
b111101 %
b111101 )
0#
#745000
b100001011000101010100000000100110101101111100001 "
b100001011000101010100000000100110101101111100001 *
b100001011000101010100000000100110101101111100001 0
b100110001100001010011011100000010000000000000000 +
b110001011100000100000000 /
b110100110100010101010001 ,
b111010001001 .
b111110 (
1#
#750000
b111100000100 -
b111110 %
b111110 )
0#
#755000
b100110001100001010011011100000010000000000000000 "
b100110001100001010011011100000010000000000000000 *
b100110001100001010011011100000010000000000000000 0
b101011100101101101010110010010101100001110100001 +
b110100110100010101010001 /
b111000010111100000010000 ,
b111100000100 .
b111111 (
1#
#760000
b111110000001 -
b111111 %
b111111 )
0#
#765000
b101011100101101101010110010010101100001110100001 "
b101011100101101101010110010010101100001110100001 *
b101011100101101101010110010010101100001110100001 0
b110001101001010001000100011011110000000100000000 +
b111000010111100000010000 /
b111100000101111100000001 ,
b111110000001 .
b1000000 (
1#
#770000
b1000000000000 -
b1000000 %
b1000000 )
0#
#775000
b110001101001010001000100011011110000000100000000 "
b110001101001010001000100011011110000000100000000 *
b110001101001010001000100011011110000000100000000 0
b111000011011001001000101001000011011111000000001 +
b111100000101111100000001 /
b1000000000000000000000000 ,
b1000000000000 .
b1000001 (
1#
#780000
b1000010000001 -
b1000001 %
b1000001 )
0#
#785000
b111000011011001001000101001000011011111000000001 "
b111000011011001001000101001000011011111000000001 *
b111000011011001001000101001000011011111000000001 0
b1000000000000000000000000000000000000000000000000 +
b1000000000000000000000000 /
b1000100000110000100000001 ,
b1000010000001 .
b1000010 (
1#
#790000
b1000100000100 -
b1000010 %
b1000010 )
0#
#795000
b1000000000000000000000000000000000000000000000000 "
b1000000000000000000000000000000000000000000000000 *
b1000000000000000000000000000000000000000000000000 0
b1001000011100111001000110111000011100001000000001 +
b1000100000110000100000001 /
b1001000011000100000010000 ,
b1000100000100 .
b1000011 (
1#
#800000
b1000110001001 -
b1000011 %
b1000011 )
0#
#805000
b1001000011100111001000110111000011100001000000001 "
b1001000011100111001000110111000011100001000000001 *
b1001000011100111001000110111000011100001000000001 0
b1010001110111010001111100011100010000000100000000 +
b1001000011000100000010000 /
b1001100110111101101010001 ,
b1000110001001 .
b1000100 (
1#
#810000
b1001000010000 -
b1000100 %
b1000100 )
0#
#815000
b1010001110111010001111100011100010000000100000000 "
b1010001110111010001111100011100010000000100000000 *
b1010001110111010001111100011100010000000100000000 0
b1011100010101000011111111101011001110111110100001 +
b1001100110111101101010001 /
b1010001100100000100000000 ,
b1001000010000 .
b1000101 (
1#
#820000
b1001010011001 -
b1000101 %
b1000101 )
0#
#825000
b1011100010101000011111111101011001110111110100001 "
b1011100010101000011111111101011001110111110100001 *
b1011100010101000011111111101011001110111110100001 0
b1100111111100100110011100100000010000000000000000 +
b1010001100100000100000000 /
b1010110011101111101110001 ,
b1001010011001 .
b1000110 (
1#
#830000
b1001100100100 -
b1000110 %
b1000110 )
0#
#835000
b1100111111100100110011100100000010000000000000000 "
b1100111111100100110011100100000010000000000000000 *
b1100111111100100110011100100000010000000000000000 0
b1110100110100110000000001100110000000111111100001 +
b1010110011101111101110001 /
b1011011100101110100010000 ,
b1001100100100 .
b1000111 (
1#
#840000
b1001110110001 -
b1000111 %
b1000111 )
0#
#845000
b1110100110100110000000001100110000000111111100001 "
b1110100110100110000000001100110000000111111100001 *
b1110100110100110000000001100110000000111111100001 0
b10000011000100111000111011100101001010000100000000 +
b1011011100101110100010000 /
b1100000111100000001100001 ,
b1001110110001 .
b1001000 (
1#
#850000
b1010001000000 -
b1001000 %
b1001000 )
0#
#855000
b10000011000100111000111011100101001010000100000000 "
b10000011000100111000111011100101001010000100000000 *
b10000011000100111000111011100101001010000100000000 0
b10010010110100111100110101110101111010010011000001 +
b1100000111100000001100001 /
b1100110100001000000000000 ,
b1010001000000 .
b1001001 (
1#
#860000
b1010011010001 -
b1001001 %
b1001001 )
0#
#865000
b10010010110100111100110101110101111010010011000001 "
b10010010110100111100110101110101111010010011000001 *
b10010010110100111100110101110101111010010011000001 0
b10100100001101011101000001000000000000000000000000 +
b1100110100001000000000000 /
b1101100010101001010100001 ,
b1010011010001 .
b1001010 (
1#
#870000
b1010101100100 -
b1001010 %
b1001010 )
0#
#875000
b10100100001101011101000001000000000000000000000000 "
b10100100001101011101000001000000000000000000000000 *
b10100100001101011101000001000000000000000000000000 0
b10110111010111100010011111010011011000100101000001 +
b1101100010101001010100001 /
b1110010011000111100010000 ,
b1010101100100 .
b1001011 (
1#
#880000
b1010111111001 -
b1001011 %
b1001011 )
0#
#885000
b10110111010111100010011111010011011000100101000001 "
b10110111010111100010011111010011011000100101000001 *
b10110111010111100010011111010011011000100101000001 0
b11001100011101000000010111000100101110000100000000 +
b1110010011000111100010000 /
b1111000101100110000110001 ,
b1010111111001 .
b1001100 (
1#
#890000
b1011010010000 -
b1001100 %
b1001100 )
0#
#895000
b11001100011101000000010111000100101110000100000000 "
b11001100011101000000010111000100101110000100000000 *
b11001100011101000000010111000100101110000100000000 0
b11100011101000010110001011011000100010000101100001 +
b1111000101100110000110001 /
b1111111010001000100000000 ,
b1011010010000 .
b1001101 (
1#
#900000
b1011100101001 -
b1001101 %
b1001101 )
0#
#905000
b11100011101000010110001011011000100010000101100001 "
b11100011101000010110001011011000100010000101100001 *
b11100011101000010110001011011000100010000101100001 0
b11111101000100110010011011001000010000000000000000 +
b1111111010001000100000000 /
b10000110000110010010010001 ,
b1011100101001 .
b1001110 (
1#
#910000
b1011111000100 -
b1001110 %
b1001110 )
0#
#915000
b11111101000100110010011011001000010000000000000000 "
b11111101000100110010011011001000010000000000000000 *
b11111101000100110010011011001000010000000000000000 0
b100011000111110010101000110101100011001101000100001 +
b10000110000110010010010001 /
b10001101001100111000010000 ,
b1011111000100 .
b1001111 (
1#
#920000
b1100001100001 -
b1001111 %
b1001111 )
0#
#925000
b100011000111110010101000110101100011001101000100001 "
b100011000111110010101000110101100011001101000100001 *
b100011000111110010101000110101100011001101000100001 0
b100110111100001110010011100010111011100000100000000 +
b10001101001100111000010000 /
b10010100100101010011000001 ,
b1100001100001 .
b1010000 (
1#
#930000
b1100100000000 -
b1010000 %
b1010000 )
0#
#935000
b100110111100001110010011100010111011100000100000000 "
b100110111100001110010011100010111011100000100000000 *
b100110111100001110010011100010111011100000100000000 0
b101011000111100110101101011101100110011100110000001 +
b10010100100101010011000001 /
b10011100010000000000000000 ,
b1100100000000 .
b1010001 (
1#
#940000
b1100110100001 -
b1010001 %
b1010001 )
0#
#945000
b101011000111100110101101011101100110011100110000001 "
b101011000111100110101101011101100110011100110000001 *
b101011000111100110101101011101100110011100110000001 0
b101111101011110000100000000000000000000000000000000 +
b10011100010000000000000000 /
b10100100001101011101000001 ,
b1100110100001 .
b1010010 (
1#
#950000
b1101001000100 -
b1010010 %
b1010010 )
0#
#955000
b101111101011110000100000000000000000000000000000000 "
b101111101011110000100000000000000000000000000000000 *
b101111101011110000100000000000000000000000000000000 0
b110100101010100111111100010000111100011111010000001 +
b10100100001101011101000001 /
b10101100011110001000010000 ,
b1101001000100 .
b1010011 (
1#
#960000
b1101011101001 -
b1010011 %
b1010011 )
0#
#965000
b110100101010100111111100010000111100011111010000001 "
b110100101010100111111100010000111100011111010000001 *
b110100101010100111111100010000111100011111010000001 0
b111010000110010001010100001110000000100000100000000 +
b10101100011110001000010000 /
b10110101000010100000010001 ,
b1101011101001 .
b1010100 (
1#
#970000
b1101110010000 -
b1010100 %
b1010100 )
0#
#975000
b111010000110010001010100001110000000100000100000000 "
b111010000110010001010100001110000000100000100000000 *
b111010000110010001010100001110000000100000100000000 0
b1000000000000111001010100110011011010101000100100001 +
b10110101000010100000010001 /
b10111101111011000100000000 ,
b1101110010000 .
b1010101 (
1#
#980000
b1110000111001 -
b1010101 %
b1010101 )
0#
#985000
b1000000000000111001010100110011011010101000100100001 "
b1000000000000111001010100110011011010101000100100001 *
b1000000000000111001010100110011011010101000100100001 0
b1000110011100110101100001000011000010000000000000000 +
b10111101111011000100000000 /
b11000111001000010010110001 ,
b1110000111001 .
b1010110 (
1#
#990000
b1110011100100 -
b1010110 %
b1010110 )
0#
#995000
b1000110011100110101100001000011000010000000000000000 "
b1000110011100110101100001000011000010000000000000000 *
b1000110011100110101100001000011000010000000000000000 0
b1001101011100100100101110001011111110000001001100001 +
b11000111001000010010110001 /
b11010000101010101100010000 ,
b1110011100100 .
b1010111 (
1#
#1000000
b1110110010001 -
b1010111 %
b1010111 )
0#
#1005000
b1001101011100100100101110001011111110000001001100001 "
b1001101011100100100101110001011111110000001001100001 *
b1001101011100100100101110001011111110000001001100001 0
b1010101000010101111100000110100011100110000100000000 +
b11010000101010101100010000 /
b11011010100010110000100001 ,
b1110110010001 .
b1011000 (
1#
#1010000
b1111001000000 -
b1011000 %
b1011000 )
0#
#1015000
b1010101000010101111100000110100011100110000100000000 "
b1010101000010101111100000110100011100110000100000000 *
b1010101000010101111100000110100011100110000100000000 0
b1011101010010001000101011000111011110101110001000001 +
b11011010100010110000100001 /
b11100100110001000000000000 ,
b1111001000000 .
b1011001 (
1#
#1020000
b1111011110001 -
b1011001 %
b1011001 )
0#
#1025000
b1011101010010001000101011000111011110101110001000001 "
b1011101010010001000101011000111011110101110001000001 *
b1011101010010001000101011000111011110101110001000001 0
b1100110001101101101101100001000000000000000000000000 +
b11100100110001000000000000 /
b11101111010101111011100001 ,
b1111011110001 .
b1011010 (
1#
#1030000
b1111110100100 -
b1011010 %
b1011010 )
0#
#1035000
b1100110001101101101101100001000000000000000000000000 "
b1100110001101101101101100001000000000000000000000000 *
b1100110001101101101101100001000000000000000000000000 0
b1101111111000100111010000001011001000000000111000001 +
b11101111010101111011100001 /
b11111010010010000100010000 ,
b1111110100100 .
b1011011 (
1#
#1040000
b10000001011001 -
b1011011 %
b1011011 )
0#
#1045000
b1101111111000100111010000001011001000000000111000001 "
b1101111111000100111010000001011001000000000111000001 *
b1101111111000100111010000001011001000000000111000001 0
b1111010010110001001110010011011001010010000100000000 +
b11111010010010000100010000 /
b100000101100101111011110001 ,
b10000001011001 .
b1011100 (
1#
#1050000
b10000100010000 -
b1011100 %
b1011100 )
0#
#1055000
b1111010010110001001110010011011001010010000100000000 "
b1111010010110001001110010011011001010010000100000000 *
b1111010010110001001110010011011001010010000100000000 0
b10000101101001110101111111100101000011101111011100001 +
b100000101100101111011110001 /
b100010001010010000100000000 ,
b10000100010000 .
b1011101 (
1#
#1060000
b10000111001001 -
b1011101 %
b1011101 )
0#
#1065000
b10000101101001110101111111100101000011101111011100001 "
b10000101101001110101111111100101000011101111011100001 *
b10000101101001110101111111100101000011101111011100001 0
b10010001110111011001011001110010000010000000000000000 +
b100010001010010000100000000 /
b100011101010110111111010001 ,
b10000111001001 .
b1011110 (
1#
#1070000
b10001010000100 -
b1011110 %
b1011110 )
0#
#1075000
b10010001110111011001011001110010000010000000000000000 "
b10010001110111011001011001110010000010000000000000000 *
b10010001110111011001011001110010000010000000000000000 0
b10011111000010101110111101101111000001110100010100001 +
b100011101010110111111010001 /
b100101001110101010000010000 ,
b10001010000100 .
b1011111 (
1#
#1080000
b10001101000001 -
b1011111 %
b1011111 )
0#
#1085000
b10011111000010101110111101101111000001110100010100001 "
b10011111000010101110111101101111000001110100010100001 *
b10011111000010101110111101101111000001110100010100001 0
b10101101001111111111101001000011110101000000100000000 +
b100101001110101010000010000 /
b100110110101101011010000001 ,
b10001101000001 .
b1100000 (
1#
#1090000
b10010000000000 -
b1100000 %
b1100000 )
0#
#1095000
b10101101001111111111101001000011110101000000100000000 "
b10101101001111111111101001000011110101000000100000000 *
b10101101001111111111101001000011110101000000100000000 0
b10111100100011100011000001111011011111110110100000001 +
b100110110101101011010000001 /
b101000100000000000000000000 ,
b10010000000000 .
b1100001 (
1#
#1100000
b10010011000001 -
b1100001 %
b1100001 )
0#
#1105000
b10111100100011100011000001111011011111110110100000001 "
b10111100100011100011000001111011011111110110100000001 *
b10111100100011100011000001111011011111110110100000001 0
b11001101000010000000000000000000000000000000000000000 +
b101000100000000000000000000 /
b101010001101101100110000001 ,
b10010011000001 .
b1100010 (
1#
